<?xml version="1.0" encoding="UTF-8" standalone="no"?>
<!-- Created with Inkscape (http://www.inkscape.org/) -->

<svg
   xmlns:dc="http://purl.org/dc/elements/1.1/"
   xmlns:cc="http://creativecommons.org/ns#"
   xmlns:rdf="http://www.w3.org/1999/02/22-rdf-syntax-ns#"
   xmlns:svg="http://www.w3.org/2000/svg"
   xmlns="http://www.w3.org/2000/svg"
   xmlns:sodipodi="http://sodipodi.sourceforge.net/DTD/sodipodi-0.dtd"
   xmlns:inkscape="http://www.inkscape.org/namespaces/inkscape"
   width="728"
   height="210"
   viewBox="0 0 192.61666 55.562502"
   version="1.1"
   id="svg1584"
   inkscape:version="0.92.3 (2405546, 2018-03-11)"
   sodipodi:docname="logo.svg"
   inkscape:export-filename="/home/madbob/lavoro/MAD/spunta/graphics/logo.png"
   inkscape:export-xdpi="90"
   inkscape:export-ydpi="90">
  <defs
     id="defs1578" />
  <sodipodi:namedview
     id="base"
     pagecolor="#ffffff"
     bordercolor="#666666"
     borderopacity="1.0"
     inkscape:pageopacity="0.0"
     inkscape:pageshadow="2"
     inkscape:zoom="0.98994949"
     inkscape:cx="280.63003"
     inkscape:cy="259.49598"
     inkscape:document-units="mm"
     inkscape:current-layer="layer1"
     showgrid="false"
     units="px"
     inkscape:window-width="1920"
     inkscape:window-height="1043"
     inkscape:window-x="1920"
     inkscape:window-y="0"
     inkscape:window-maximized="1" />
  <metadata
     id="metadata1581">
    <rdf:RDF>
      <cc:Work
         rdf:about="">
        <dc:format>image/svg+xml</dc:format>
        <dc:type
           rdf:resource="http://purl.org/dc/dcmitype/StillImage" />
        <dc:title />
      </cc:Work>
    </rdf:RDF>
  </metadata>
  <g
     inkscape:label="Layer 1"
     inkscape:groupmode="layer"
     id="layer1"
     transform="translate(0,-241.43748)">
    <g
       aria-label="SP  NTA"
       style="font-style:normal;font-weight:normal;font-size:39.15271759px;line-height:24.47044754px;font-family:sans-serif;letter-spacing:0px;word-spacing:0px;fill:#008600;fill-opacity:1;stroke:#000000;stroke-width:1;stroke-linecap:butt;stroke-linejoin:miter;stroke-miterlimit:4;stroke-dasharray:none;stroke-opacity:1"
       id="text817">
      <path
         d="m 16.973609,263.90083 c -3.445439,0 -6.851725,1.33119 -9.4749575,3.91527 -5.2073114,5.24647 -5.2073114,13.6643 0,18.91076 l -2.075094,2.0751 c 2.6232321,2.58408 6.0295185,3.91527 9.4358045,3.91527 3.44544,0 6.851726,-1.33119 9.474958,-3.91527 5.207312,-5.20731 5.207312,-13.6643 0,-18.91076 l 2.075094,-2.0751 c -2.623232,-2.58408 -6.029518,-3.91527 -9.435805,-3.91527 z"
         style="font-style:normal;font-variant:normal;font-weight:normal;font-stretch:normal;font-size:39.15271759px;font-family:Dubtronic;-inkscape-font-specification:'Dubtronic, Normal';font-variant-ligatures:normal;font-variant-caps:normal;font-variant-numeric:normal;font-feature-settings:normal;text-align:start;writing-mode:lr-tb;text-anchor:start;fill:#008600;fill-opacity:1;stroke:#000000;stroke-width:1;stroke-miterlimit:4;stroke-dasharray:none;stroke-opacity:1"
         id="path821" />
      <path
         d="m 46.699086,264.60558 c -0.626443,0 -15.152101,0 -15.152101,0 v 27.4069 h 19.732969 v -6.26443 c 3.836967,-1.76188 6.460199,-5.59884 6.460199,-10.06225 0,-6.10783 -4.933243,-11.08022 -11.041067,-11.08022 z"
         style="font-style:normal;font-variant:normal;font-weight:normal;font-stretch:normal;font-size:39.15271759px;font-family:Dubtronic;-inkscape-font-specification:'Dubtronic, Normal';font-variant-ligatures:normal;font-variant-caps:normal;font-variant-numeric:normal;font-feature-settings:normal;text-align:start;writing-mode:lr-tb;text-anchor:start;fill:#008600;fill-opacity:1;stroke:#000000;stroke-width:1;stroke-miterlimit:4;stroke-dasharray:none;stroke-opacity:1"
         id="path823" />
      <path
         d="m 127.8535,264.60558 h -13.70345 v 7.51732 l -13.70345,-7.51732 v 27.4069 h 27.4069 z"
         style="font-style:normal;font-variant:normal;font-weight:normal;font-stretch:normal;font-size:39.15271759px;font-family:Dubtronic;-inkscape-font-specification:'Dubtronic, Normal';font-variant-ligatures:normal;font-variant-caps:normal;font-variant-numeric:normal;font-feature-settings:normal;text-align:start;writing-mode:lr-tb;text-anchor:start;fill:#008600;fill-opacity:1;stroke:#000000;stroke-width:1;stroke-miterlimit:4;stroke-dasharray:none;stroke-opacity:1"
         id="path825" />
      <path
         d="m 158.89304,264.60558 h -27.40691 v 13.70345 h 3.5629 v 13.70345 h 20.28111 v -13.70345 h 3.5629 z"
         style="font-style:normal;font-variant:normal;font-weight:normal;font-stretch:normal;font-size:39.15271759px;font-family:Dubtronic;-inkscape-font-specification:'Dubtronic, Normal';font-variant-ligatures:normal;font-variant-caps:normal;font-variant-numeric:normal;font-feature-settings:normal;text-align:start;writing-mode:lr-tb;text-anchor:start;fill:#008600;fill-opacity:1;stroke:#000000;stroke-width:1;stroke-miterlimit:4;stroke-dasharray:none;stroke-opacity:1"
         id="path827" />
      <path
         d="m 189.09997,292.01248 -15.07379,-27.4069 -15.03465,27.4069 z"
         style="font-style:normal;font-variant:normal;font-weight:normal;font-stretch:normal;font-size:39.15271759px;font-family:Dubtronic;-inkscape-font-specification:'Dubtronic, Normal';font-variant-ligatures:normal;font-variant-caps:normal;font-variant-numeric:normal;font-feature-settings:normal;text-align:start;writing-mode:lr-tb;text-anchor:start;fill:#008600;fill-opacity:1;stroke:#000000;stroke-width:1;stroke-miterlimit:4;stroke-dasharray:none;stroke-opacity:1"
         id="path829" />
    </g>
    <path
       inkscape:connector-curvature="0"
       style="opacity:1;fill:#00ff00;fill-opacity:1;stroke:#000000;stroke-width:2;stroke-linecap:round;stroke-linejoin:miter;stroke-miterlimit:4;stroke-dasharray:none;stroke-dashoffset:0;stroke-opacity:1;paint-order:stroke fill markers"
       d="m 103.0025,245.72038 -27.899078,27.89907 -10.134782,-10.13426 -9.177735,9.17773 10.134783,10.13427 9.177734,9.17773 9.177735,-9.17773 27.899073,-27.89908 z"
       id="rect824"
       inkscape:export-xdpi="90"
       inkscape:export-ydpi="90" />
    <rect
       style="opacity:1;fill:none;fill-opacity:1;stroke:none;stroke-width:4.83045912;stroke-linecap:round;stroke-linejoin:miter;stroke-miterlimit:4;stroke-dasharray:none;stroke-dashoffset:0;stroke-opacity:1;paint-order:stroke fill markers"
       id="rect832"
       width="192.61667"
       height="55.5625"
       x="-1.0632507e-06"
       y="241.43748"
       inkscape:export-xdpi="90"
       inkscape:export-ydpi="90" />
  </g>
</svg>
